building tools 1=2000
building tools 2=2000
building tools 3=2000
building tools 4=5000
building tools 5=5000
building tools 6=2000
building tools 7=1000
building tools 8=5000
building tools 9=6000
shelter equipment=5000
construction equipment=5000
plants=1000
steel=8000
books=1000
water=5000